EDA Scratch
…
aoe2 %>%
  group_by(country) %>%
  summarise(avggames = mean(games), avgwins = mean(wins), avglosses = mean(losses), avgdrops = mean(drops))

## # A tibble: 93 x 5
##    country avggames avgwins avglosses avgdrops
##    <chr>      <dbl>   <dbl>     <dbl>    <dbl>
##  1 AE          74.3    40.5      33.8     2   
##  2 AL          34      22        12       0   
##  3 AM          21       9        12       2   
##  4 AR          69.9    36.5      33.4     2.29
##  5 AT          91.2    48.7      42.5     2.22
##  6 AU          77.2    38.6      38.7     1.97
##  7 BD          45      18        27       0   
##  8 BE         112.     58.0      53.9     2.54
##  9 BG         141.     71.8      69       4.67
## 10 BH          99      43        56      10.3 
## # ... with 83 more rows
…
